#courses – Week 1, Session 2 — R, RStudio, Quarto, and renv toolchain
…
Stand up a minimal reproducible R project and demonstrate the commands that keep it reproducible: version reporting, environment snapshotting, and rendering.

2. Approach

A reproducible project has four minimum ingredients: a working directory, a package lockfile, a document that can be re-rendered, and a record of the R session. In this lab we simulate a tiny dataset, draw a figure from it, and record the environment used to produce both.

lab <- tibble(
  subject = seq_len(30),
  group   = rep(c("A", "B"), each = 15),
  value   = c(rnorm(15, mean = 10, sd = 2),
              rnorm(15, mean = 12, sd = 2))
)
lab

# A tibble: 30 × 3
   subject group value
     <int> <chr> <dbl>
 1       1 A     12.7 
 2       2 A      8.87
 3       3 A     10.7 
 4       4 A     11.3 
 5       5 A     10.8 
 6       6 A      9.79
 7       7 A     13.0 
 8       8 A      9.81
 9       9 A     14.0 
10      10 A      9.87
# ℹ 20 more rows
…
